<svg xmlns="http://www.w3.org/2000/svg" width="500" height="500" viewBox="0 0 132.292 132.292" className="ancientGreece">
    <defs>
        <clipPath clipPathUnits="userSpaceOnUse" id="a">
            <circle r="34.047" cy="218.178" cx="58.181" fill="#0153ff" stroke-width="3.955" stroke-linecap="round" stroke-linejoin="round"/>
        </clipPath>
    </defs>
    <g transform="translate(12.298 -154.625) scale(.92553)">
        <circle r="34.047" cy="218.178" cx="58.181" fill="#0153ff"/>
        <g clip-path="url(#a)">
            <path d="M81.493 188.713c-3.696.02-7.504.62-12.215 3.327-6.28 3.608-5.612-3.608-8.953-3.207-3.341.4-9.221.267-8.152 2.672 1.069 2.406 8.285-.935 8.152 2.405-.134 3.341-9.622.402-12.695 2.54-3.074 2.138-5.88 6.28-1.872 6.414 4.01.134 5.212-4.009 8.286-4.142 0 0 6.682.667 10.824 6.815 4.143 6.147 17.106 6.28 17.106 6.28s5.612 1.47 6.013 8.42c.401 6.949 6.548-2.673 5.88-9.087-.668-6.415-3.742-22.05-8.686-22.317-1.236-.067-2.456-.126-3.688-.12zm-32.038 17.954c-1.3.016-2.628.16-3.964.474 0 0-4.41 1.202-4.41 5.211 0 4.01 3.34 8.018 8.285 9.088 4.945 1.069 3.743 17.64 7.618 17.238 3.875-.4 5.345-19.778 9.889-22.317 4.543-2.539 2.539-4.677-1.07-5.479-3.044-.676-9.323-4.302-16.348-4.215z" fill="#05c02b"/>
            <path d="M33.008 247.02s14.299-3.875 24.188-3.474c9.889.401 22.45 4.544 22.45 4.544l-11.091 7.884-26.46-.267z" fill="#abe0ff"/>
        </g>
    </g>
    <g transform="translate(-.459 -164.518)" fill="#296e20" stroke="#000" stroke-width="2.646" stroke-linecap="round" stroke-linejoin="round" class="turtle">
        <circle r="7.058" cy="262.255" cx="88.398" stroke-dashoffset="37.798"/>
        <path d="M63.076 244.68a20.378 20.378 0 00-20.346 19.748h40.702a20.378 20.378 0 00-20.356-19.748z" stroke-dashoffset="10"/>
        <rect transform="rotate(-3.411)" rx="3.292" y="268.042" x="32.595" height="13.17" width="6.585" stroke-dashoffset="37.798"/>
        <rect transform="rotate(12.551)" rx="3.292" y="249.991" x="101.363" height="13.17" width="6.585" stroke-dashoffset="37.798"/>
        <rect transform="rotate(.7)" rx="3.292" y="263.859" x="74.064" height="13.17" width="6.585" stroke-dashoffset="37.798"/>
        <rect transform="rotate(-9.903)" rx="3.292" y="275.855" x="27.689" height="13.17" width="6.585" stroke-dashoffset="37.798"/>
        <rect ry="4.476" rx="4.476" y="262.255" x="37.753" height="8.953" width="50.645" stroke-dashoffset="10.001"/>
    </g>
</svg>
